%YAML 1.1
%TAG !u! tag:unity3d.com,2011:
--- !u!1001 &1353848748195256992
PrefabInstance:
  m_ObjectHideFlags: 0
  serializedVersion: 2
  m_Modification:
    m_TransformParent: {fileID: 0}
    m_Modifications:
    - target: {fileID: 36591318685129683, guid: 902bf30f841c0964281d4bd66d322397,
        type: 3}
      propertyPath: m_Name
      value: Dude Variant 1
      objectReference: {fileID: 0}
    - target: {fileID: 36591318685129687, guid: 902bf30f841c0964281d4bd66d322397,
        type: 3}
      propertyPath: m_Sprite
      value: 
      objectReference: {fileID: 21300000, guid: feb99e28d832f6e49bb425d7425f1977,
        type: 3}
    - target: {fileID: 36591318685129688, guid: 902bf30f841c0964281d4bd66d322397,
        type: 3}
      propertyPath: m_LocalPosition.x
      value: -2.01
      objectReference: {fileID: 0}
    - target: {fileID: 36591318685129688, guid: 902bf30f841c0964281d4bd66d322397,
        type: 3}
      propertyPath: m_LocalPosition.y
      value: 0
      objectReference: {fileID: 0}
    - target: {fileID: 36591318685129688, guid: 902bf30f841c0964281d4bd66d322397,
        type: 3}
      propertyPath: m_LocalPosition.z
      value: -4
      objectReference: {fileID: 0}
    - target: {fileID: 36591318685129688, guid: 902bf30f841c0964281d4bd66d322397,
        type: 3}
      propertyPath: m_LocalRotation.x
      value: 0
      objectReference: {fileID: 0}
    - target: {fileID: 36591318685129688, guid: 902bf30f841c0964281d4bd66d322397,
        type: 3}
      propertyPath: m_LocalRotation.y
      value: 0
      objectReference: {fileID: 0}
    - target: {fileID: 36591318685129688, guid: 902bf30f841c0964281d4bd66d322397,
        type: 3}
      propertyPath: m_LocalRotation.z
      value: 0
      objectReference: {fileID: 0}
    - target: {fileID: 36591318685129688, guid: 902bf30f841c0964281d4bd66d322397,
        type: 3}
      propertyPath: m_LocalRotation.w
      value: 1
      objectReference: {fileID: 0}
    - target: {fileID: 36591318685129688, guid: 902bf30f841c0964281d4bd66d322397,
        type: 3}
      propertyPath: m_RootOrder
      value: 0
      objectReference: {fileID: 0}
    - target: {fileID: 36591318685129688, guid: 902bf30f841c0964281d4bd66d322397,
        type: 3}
      propertyPath: m_LocalEulerAnglesHint.x
      value: 0
      objectReference: {fileID: 0}
    - target: {fileID: 36591318685129688, guid: 902bf30f841c0964281d4bd66d322397,
        type: 3}
      propertyPath: m_LocalEulerAnglesHint.y
      value: 0
      objectReference: {fileID: 0}
    - target: {fileID: 36591318685129688, guid: 902bf30f841c0964281d4bd66d322397,
        type: 3}
      propertyPath: m_LocalEulerAnglesHint.z
      value: 0
      objectReference: {fileID: 0}
    - target: {fileID: 2385870494070391476, guid: 902bf30f841c0964281d4bd66d322397,
        type: 3}
      propertyPath: m_AnchorMax.y
      value: 0
      objectReference: {fileID: 0}
    - target: {fileID: 8961135594799620963, guid: 902bf30f841c0964281d4bd66d322397,
        type: 3}
      propertyPath: m_AnchorMax.y
      value: 0
      objectReference: {fileID: 0}
    m_RemovedComponents: []
  m_SourcePrefab: {fileID: 100100000, guid: 902bf30f841c0964281d4bd66d322397, type: 3}
